%YAML 1.1
%TAG !u! tag:unity3d.com,2011:
--- !u!78 &1
TagManager:
  serializedVersion: 2
  tags:
  - Enemy
  - DefendingCollider
  - AtackingWeapon
  - EnemyWeapon
  - Bomb
  - CoreBoss
  - Explosion
  layers:
  - Default
  - TransparentFX
  - Ignore Raycast
  - 
  - Water
  - UI
  - 
  - 
  - Ground
  - Player
  - Bomb
  - 
  - 
  - 
  - 
  - 
  - 
  - 
  - 
  - 
  - 
  - 
  - 
  - 
  - 
  - 
  - 
  - 
  - 
  - 
  - 
  - 
  m_SortingLayers:
  - name: Default
    uniqueID: 0
    locked: 0
  - name: Map
    uniqueID: 2619425097
    locked: 0
  - name: Player
    uniqueID: 3133948501
    locked: 0
  - name: Enemy
    uniqueID: 1689252535
    locked: 0
